{
  "key": "${addon.key}",
  "baseUrl": "${addon.base-url}",
  "name": "Dynamic Modules Management Example",
  "authentication": {
    "type": "jwt"
  },
  "lifecycle": {
    "installed": "/installed",
    "uninstalled": "/uninstalled"
  },
  "scopes": ["READ"],
  "apiMigrations": {
    "gdpr": true
  },
  "modules": {
    "generalPages": [
      {
        "url": "/dynamicModulesManagement",
        "key": "dynamicModulesManagement",
        "location": "system.top.navigation.bar",
        "name": {
          "value": "Dynamic Modules Management"
        },
        "cacheable": false
      }
    ]
  }
}
